{
 	"spritesheets":[
		{"name":"explosion", "file":"spritesheets\\explosion.json"}
	],
	"sequences":[
		{"name":"explosion", "sheet":"explosion", "rate":0.1, "loop":false, "size":[ 50, 50 ], "seq":[ 0, 1, 2 ]},
		{"name":"triex", "sheet":"explosion", "rate":0.1, "loop":false, "size":[ 50, 50 ], "seq":[ 3, 4, 5 ]}
	],
	"sprites":[
		{"name":"testNPC", "file":"testNPCDescriptor.json"},
		{"name":"shooter", "file":"shooterDescriptor.json"}
	]
}